<mxfile host="app.diagrams.net" modified="2021-11-04T16:49:27.645Z" agent="5.0 (X11)" etag="3f_VnhNbUBRTwCBtkVj4" version="15.6.8" type="gitlab">
  <diagram id="cijY668zIndBrdYFZPb6" name="Page-1">
    <mxGraphModel dx="813" dy="469" grid="1" gridSize="10" guides="1" tooltips="1" connect="1" arrows="1" fold="1" page="1" pageScale="1" pageWidth="827" pageHeight="1169" math="0" shadow="0">
      <root>
        <mxCell id="0" />
        <mxCell id="1" parent="0" />
        <mxCell id="x7i749y_AEoeq9uyrHoN-5" value="" style="group" vertex="1" connectable="0" parent="1">
          <mxGeometry x="360" y="280" width="80" height="80" as="geometry" />
        </mxCell>
        <mxCell id="x7i749y_AEoeq9uyrHoN-1" value="" style="ellipse;whiteSpace=wrap;html=1;aspect=fixed;" vertex="1" parent="x7i749y_AEoeq9uyrHoN-5">
          <mxGeometry width="80" height="80" as="geometry" />
        </mxCell>
        <mxCell id="x7i749y_AEoeq9uyrHoN-2" value="" style="endArrow=none;html=1;rounded=0;exitX=0;exitY=0.675;exitDx=0;exitDy=0;entryX=0.963;entryY=0.338;entryDx=0;entryDy=0;entryPerimeter=0;exitPerimeter=0;" edge="1" parent="x7i749y_AEoeq9uyrHoN-5" source="x7i749y_AEoeq9uyrHoN-1" target="x7i749y_AEoeq9uyrHoN-1">
          <mxGeometry width="50" height="50" relative="1" as="geometry">
            <mxPoint x="20" y="70" as="sourcePoint" />
            <mxPoint x="70" y="30" as="targetPoint" />
          </mxGeometry>
        </mxCell>
        <mxCell id="x7i749y_AEoeq9uyrHoN-3" value="&lt;font style=&quot;font-size: 24px&quot;&gt;A&lt;/font&gt;" style="text;html=1;strokeColor=none;fillColor=none;align=center;verticalAlign=middle;whiteSpace=wrap;rounded=0;strokeWidth=5;" vertex="1" parent="x7i749y_AEoeq9uyrHoN-5">
          <mxGeometry y="10" width="60" height="30" as="geometry" />
        </mxCell>
        <mxCell id="x7i749y_AEoeq9uyrHoN-4" value="&lt;font style=&quot;font-size: 18px&quot;&gt;000&lt;/font&gt;" style="text;html=1;strokeColor=none;fillColor=none;align=center;verticalAlign=middle;whiteSpace=wrap;rounded=0;" vertex="1" parent="x7i749y_AEoeq9uyrHoN-5">
          <mxGeometry x="20" y="40" width="60" height="30" as="geometry" />
        </mxCell>
        <mxCell id="x7i749y_AEoeq9uyrHoN-6" value="" style="group" vertex="1" connectable="0" parent="1">
          <mxGeometry x="440" y="360" width="80" height="80" as="geometry" />
        </mxCell>
        <mxCell id="x7i749y_AEoeq9uyrHoN-7" value="" style="ellipse;whiteSpace=wrap;html=1;aspect=fixed;" vertex="1" parent="x7i749y_AEoeq9uyrHoN-6">
          <mxGeometry width="80" height="80" as="geometry" />
        </mxCell>
        <mxCell id="x7i749y_AEoeq9uyrHoN-8" value="" style="endArrow=none;html=1;rounded=0;exitX=0;exitY=0.675;exitDx=0;exitDy=0;entryX=0.963;entryY=0.338;entryDx=0;entryDy=0;entryPerimeter=0;exitPerimeter=0;" edge="1" parent="x7i749y_AEoeq9uyrHoN-6" source="x7i749y_AEoeq9uyrHoN-7" target="x7i749y_AEoeq9uyrHoN-7">
          <mxGeometry width="50" height="50" relative="1" as="geometry">
            <mxPoint x="20" y="70" as="sourcePoint" />
            <mxPoint x="70" y="30" as="targetPoint" />
          </mxGeometry>
        </mxCell>
        <mxCell id="x7i749y_AEoeq9uyrHoN-9" value="&lt;font style=&quot;font-size: 24px&quot;&gt;B&lt;/font&gt;" style="text;html=1;strokeColor=none;fillColor=none;align=center;verticalAlign=middle;whiteSpace=wrap;rounded=0;strokeWidth=5;" vertex="1" parent="x7i749y_AEoeq9uyrHoN-6">
          <mxGeometry y="10" width="60" height="30" as="geometry" />
        </mxCell>
        <mxCell id="x7i749y_AEoeq9uyrHoN-10" value="&lt;font style=&quot;font-size: 18px&quot;&gt;001&lt;/font&gt;" style="text;html=1;strokeColor=none;fillColor=none;align=center;verticalAlign=middle;whiteSpace=wrap;rounded=0;" vertex="1" parent="x7i749y_AEoeq9uyrHoN-6">
          <mxGeometry x="20" y="40" width="60" height="30" as="geometry" />
        </mxCell>
        <mxCell id="x7i749y_AEoeq9uyrHoN-11" value="" style="group" vertex="1" connectable="0" parent="1">
          <mxGeometry x="360" y="440" width="80" height="80" as="geometry" />
        </mxCell>
        <mxCell id="x7i749y_AEoeq9uyrHoN-12" value="" style="ellipse;whiteSpace=wrap;html=1;aspect=fixed;" vertex="1" parent="x7i749y_AEoeq9uyrHoN-11">
          <mxGeometry width="80" height="80" as="geometry" />
        </mxCell>
        <mxCell id="x7i749y_AEoeq9uyrHoN-13" value="" style="endArrow=none;html=1;rounded=0;exitX=0;exitY=0.675;exitDx=0;exitDy=0;entryX=0.963;entryY=0.338;entryDx=0;entryDy=0;entryPerimeter=0;exitPerimeter=0;" edge="1" parent="x7i749y_AEoeq9uyrHoN-11" source="x7i749y_AEoeq9uyrHoN-12" target="x7i749y_AEoeq9uyrHoN-12">
          <mxGeometry width="50" height="50" relative="1" as="geometry">
            <mxPoint x="20" y="70" as="sourcePoint" />
            <mxPoint x="70" y="30" as="targetPoint" />
          </mxGeometry>
        </mxCell>
        <mxCell id="x7i749y_AEoeq9uyrHoN-14" value="&lt;br&gt;&lt;font style=&quot;font-size: 24px&quot;&gt;C&lt;/font&gt;" style="text;html=1;strokeColor=none;fillColor=none;align=center;verticalAlign=middle;whiteSpace=wrap;rounded=0;strokeWidth=5;" vertex="1" parent="x7i749y_AEoeq9uyrHoN-11">
          <mxGeometry y="10" width="60" height="30" as="geometry" />
        </mxCell>
        <mxCell id="x7i749y_AEoeq9uyrHoN-15" value="&lt;font style=&quot;font-size: 18px&quot;&gt;011&lt;/font&gt;" style="text;html=1;strokeColor=none;fillColor=none;align=center;verticalAlign=middle;whiteSpace=wrap;rounded=0;" vertex="1" parent="x7i749y_AEoeq9uyrHoN-11">
          <mxGeometry x="20" y="40" width="60" height="30" as="geometry" />
        </mxCell>
        <mxCell id="x7i749y_AEoeq9uyrHoN-18" value="" style="group" vertex="1" connectable="0" parent="1">
          <mxGeometry x="280" y="360" width="80" height="80" as="geometry" />
        </mxCell>
        <mxCell id="x7i749y_AEoeq9uyrHoN-19" value="" style="ellipse;whiteSpace=wrap;html=1;aspect=fixed;" vertex="1" parent="x7i749y_AEoeq9uyrHoN-18">
          <mxGeometry width="80" height="80" as="geometry" />
        </mxCell>
        <mxCell id="x7i749y_AEoeq9uyrHoN-20" value="" style="endArrow=none;html=1;rounded=0;exitX=0;exitY=0.675;exitDx=0;exitDy=0;entryX=0.963;entryY=0.338;entryDx=0;entryDy=0;entryPerimeter=0;exitPerimeter=0;" edge="1" parent="x7i749y_AEoeq9uyrHoN-18" source="x7i749y_AEoeq9uyrHoN-19" target="x7i749y_AEoeq9uyrHoN-19">
          <mxGeometry width="50" height="50" relative="1" as="geometry">
            <mxPoint x="20" y="70" as="sourcePoint" />
            <mxPoint x="70" y="30" as="targetPoint" />
          </mxGeometry>
        </mxCell>
        <mxCell id="x7i749y_AEoeq9uyrHoN-21" value="&lt;font style=&quot;font-size: 24px&quot;&gt;D&lt;/font&gt;" style="text;html=1;strokeColor=none;fillColor=none;align=center;verticalAlign=middle;whiteSpace=wrap;rounded=0;strokeWidth=5;" vertex="1" parent="x7i749y_AEoeq9uyrHoN-18">
          <mxGeometry y="10" width="60" height="30" as="geometry" />
        </mxCell>
        <mxCell id="x7i749y_AEoeq9uyrHoN-22" value="&lt;font style=&quot;font-size: 18px&quot;&gt;111&lt;/font&gt;" style="text;html=1;strokeColor=none;fillColor=none;align=center;verticalAlign=middle;whiteSpace=wrap;rounded=0;" vertex="1" parent="x7i749y_AEoeq9uyrHoN-18">
          <mxGeometry x="20" y="40" width="60" height="30" as="geometry" />
        </mxCell>
        <mxCell id="x7i749y_AEoeq9uyrHoN-23" style="edgeStyle=orthogonalEdgeStyle;rounded=0;orthogonalLoop=1;jettySize=auto;html=1;exitX=1;exitY=0;exitDx=0;exitDy=0;entryX=0.5;entryY=0;entryDx=0;entryDy=0;fontSize=18;" edge="1" parent="1" source="x7i749y_AEoeq9uyrHoN-4" target="x7i749y_AEoeq9uyrHoN-7">
          <mxGeometry relative="1" as="geometry">
            <Array as="points">
              <mxPoint x="480" y="320" />
            </Array>
          </mxGeometry>
        </mxCell>
        <mxCell id="x7i749y_AEoeq9uyrHoN-24" style="edgeStyle=orthogonalEdgeStyle;rounded=0;orthogonalLoop=1;jettySize=auto;html=1;exitX=0.5;exitY=1;exitDx=0;exitDy=0;entryX=1;entryY=0;entryDx=0;entryDy=0;fontSize=18;" edge="1" parent="1" source="x7i749y_AEoeq9uyrHoN-7" target="x7i749y_AEoeq9uyrHoN-15">
          <mxGeometry relative="1" as="geometry">
            <Array as="points">
              <mxPoint x="480" y="480" />
            </Array>
          </mxGeometry>
        </mxCell>
        <mxCell id="x7i749y_AEoeq9uyrHoN-27" style="edgeStyle=orthogonalEdgeStyle;rounded=0;orthogonalLoop=1;jettySize=auto;html=1;exitX=0;exitY=1;exitDx=0;exitDy=0;fontSize=18;" edge="1" parent="1" source="x7i749y_AEoeq9uyrHoN-14">
          <mxGeometry relative="1" as="geometry">
            <mxPoint x="320" y="440" as="targetPoint" />
            <Array as="points">
              <mxPoint x="320" y="480" />
            </Array>
          </mxGeometry>
        </mxCell>
        <mxCell id="x7i749y_AEoeq9uyrHoN-28" style="edgeStyle=orthogonalEdgeStyle;rounded=0;orthogonalLoop=1;jettySize=auto;html=1;exitX=0.5;exitY=0;exitDx=0;exitDy=0;entryX=0;entryY=1;entryDx=0;entryDy=0;fontSize=18;" edge="1" parent="1" source="x7i749y_AEoeq9uyrHoN-19" target="x7i749y_AEoeq9uyrHoN-3">
          <mxGeometry relative="1" as="geometry">
            <Array as="points">
              <mxPoint x="320" y="320" />
            </Array>
          </mxGeometry>
        </mxCell>
      </root>
    </mxGraphModel>
  </diagram>
</mxfile>
